simulation/qsim/assigment.msim.vcd
$comment
	File created using the following command:
		vcd file assigment.msim.vcd -direction
$end
$date
	Mon Nov 15 15:07:44 2021
$end
$version
	ModelSim Version 10.5b
$end
$timescale
	1ps
$end

$scope module EU_vlg_vec_tst $end
$var reg 1 ! CLOCK $end
$var reg 10 " CMI [9:0] $end
$var wire 1 # rega [3] $end
$var wire 1 $ rega [2] $end
$var wire 1 % rega [1] $end
$var wire 1 & rega [0] $end
$var wire 1 ' regb [3] $end
$var wire 1 ( regb [2] $end
$var wire 1 ) regb [1] $end
$var wire 1 * regb [0] $end
$var wire 1 + regc [3] $end
$var wire 1 , regc [2] $end
$var wire 1 - regc [1] $end
$var wire 1 . regc [0] $end

$scope module i1 $end
$var wire 1 / gnd $end
$var wire 1 0 vcc $end
$var wire 1 1 unknown $end
$var tri1 1 2 devclrn $end
$var tri1 1 3 devpor $end
$var tri1 1 4 devoe $end
$var wire 1 5 ~QUARTUS_CREATED_GND~I_combout $end
$var wire 1 6 CLOCK~input_o $end
$var wire 1 7 CLOCK~inputCLKENA0_outclk $end
$var wire 1 8 CMI[9]~input_o $end
$var wire 1 9 CMI[8]~input_o $end
$var wire 1 : CMI[7]~input_o $end
$var wire 1 ; CMI[3]~input_o $end
$var wire 1 < CMI[6]~input_o $end
$var wire 1 = inst3|inst|filopy~q $end
$var wire 1 > inst4|inst|filopy~q $end
$var wire 1 ? inst5|inst2|$00000|auto_generated|l1_w3_n0_mux_dataout~0_combout $end
$var wire 1 @ CMI[4]~input_o $end
$var wire 1 A CMI[5]~input_o $end
$var wire 1 B inst15|inst2|$00000|auto_generated|l1_w3_n0_mux_dataout~0_combout $end
$var wire 1 C CMI[0]~input_o $end
$var wire 1 D inst4|inst4|filopy~q $end
$var wire 1 E inst3|inst4|filopy~q $end
$var wire 1 F inst5|inst2|$00000|auto_generated|l1_w0_n0_mux_dataout~0_combout $end
$var wire 1 G inst|inst|inst2|$00000|auto_generated|l1_w0_n0_mux_dataout~0_combout $end
$var wire 1 H inst20~combout $end
$var wire 1 I inst2|inst4|filopy~q $end
$var wire 1 J inst15|inst2|$00000|auto_generated|l1_w0_n0_mux_dataout~0_combout $end
$var wire 1 K CMI[1]~input_o $end
$var wire 1 L inst2|inst3|filopy~q $end
$var wire 1 M inst3|inst3|filopy~q $end
$var wire 1 N inst5|inst2|$00000|auto_generated|l1_w1_n0_mux_dataout~0_combout $end
$var wire 1 O inst|inst|inst2|$00000|auto_generated|l1_w1_n0_mux_dataout~0_combout $end
$var wire 1 P inst4|inst3|filopy~q $end
$var wire 1 Q inst15|inst2|$00000|auto_generated|l1_w1_n0_mux_dataout~0_combout $end
$var wire 1 R inst|inst11|inst4|inst2|inst2~combout $end
$var wire 1 S CMI[2]~input_o $end
$var wire 1 T inst4|inst2|filopy~q $end
$var wire 1 U inst2|inst2|filopy~q $end
$var wire 1 V inst15|inst2|$00000|auto_generated|l1_w2_n0_mux_dataout~0_combout $end
$var wire 1 W inst|inst11|inst4|inst|inst2~combout $end
$var wire 1 X inst|inst|inst2|$00000|auto_generated|l1_w2_n0_mux_dataout~0_combout $end
$var wire 1 Y inst3|inst2|filopy~q $end
$var wire 1 Z inst5|inst2|$00000|auto_generated|l1_w2_n0_mux_dataout~0_combout $end
$var wire 1 [ inst|inst11|inst3|inst|inst2~combout $end
$var wire 1 \ inst|inst11|inst3|inst2|inst2~combout $end
$var wire 1 ] inst|inst|inst2|$00000|auto_generated|l1_w3_n0_mux_dataout~0_combout $end
$var wire 1 ^ inst2|inst|filopy~q $end
$upscope $end
$upscope $end
$enddefinitions $end
#0
$dumpvars
0!
b100111100 "
0&
0%
0$
0#
0*
0)
0(
0'
0.
0-
0,
0+
0/
10
x1
12
13
14
05
06
07
08
19
0:
1;
0<
0=
0>
0?
1@
1A
1B
0C
0D
0E
0F
0G
1H
0I
0J
0K
0L
0M
0N
0O
0P
0Q
0R
1S
0T
0U
1V
0W
1X
0Y
0Z
0[
0\
1]
0^
$end
#5000
1!
16
17
1^
1U
1$
1#
1Z
1?
1\
#10000
b101111100 "
b101011100 "
b101001100 "
b101000100 "
b101000000 "
0!
0S
0;
0@
0A
1<
06
07
0Z
0H
0?
0\
#15000
1!
16
17
1Y
1=
1'
1(
1?
1Z
1\
#20000
b111000000 "
b111000001 "
b110000001 "
b110100001 "
b110110001 "
b110111001 "
0!
1C
1;
1@
1A
0<
1:
06
07
0Z
0?
0V
1J
0\
1G
0X
#25000
1!
16
17
1D
1>
1+
1.
1?
1F
#30000
b1110111001 "
b1100111001 "
b1100111000 "
b1101111000 "
b1101101000 "
b1101100000 "
0!
0C
0;
0@
1<
0:
18
06
07
1Z
0F
0G
#35000
1!
16
17
0Y
0(
0Z
#40000
b1001100000 "
b1001000000 "
b1000000000 "
b1000010000 "
0!
1@
0A
0<
09
06
07
0]
1G
1Z
1H
0J
0G
1X
#45000
1!
16
17
0^
0#
0?
1]
#50000
b1000010010 "
b1000010110 "
b1010010110 "
b1010110110 "
0!
1K
1S
1A
1:
06
07
0Z
0H
1F
1?
1V
1Q
0B
1O
1G
#55000
1!
16
17
1T
1P
1-
1,
1N
1Z
1[
0X
1R
0O
1X
0]
#60000
b10110110 "
b110110110 "
b110110100 "
b110110000 "
b100110000 "
0!
0K
0S
0:
19
08
06
07
1O
0G
0N
1H
0F
0?
0V
0Q
0[
0R
0O
0X
#65000
1!
16
17
0U
0$
0Z
#70000
b101110000 "
0!
1<
06
07
0H
1?
#75000
1!
16
17
0=
0'
0?
#80000
b101110001 "
b1101110001 "
b1101110101 "
b1111110101 "
b1110110101 "
0!
1C
1S
0<
1:
18
06
07
1Z
1N
1F
1?
1V
1J
1[
1W
1G
1X
#85000
1!
16
17
0P
0>
0+
0-
0?
0N
1\
0[
0W
#90000
b1110110100 "
b110110100 "
b110110000 "
0!
0C
0S
08
06
07
0V
0J
0\
0G
0X
#95000
1!
16
17
0T
0D
0.
0,
0F
0Z
#100000
b110100000 "
b110000000 "
b10000000 "
b0 "
0!
0@
0A
0:
09
06
07
1H
#105000
1!
16
17
#110000
0!
06
07
#115000
1!
16
17
#120000
0!
06
07
#125000
1!
16
17
#130000
0!
06
07
#135000
1!
16
17
#140000
0!
06
07
#145000
1!
16
17
#150000
0!
06
07
#155000
1!
16
17
#160000
0!
06
07
#165000
1!
16
17
#170000
0!
06
07
#175000
1!
16
17
#180000
0!
06
07
#185000
1!
16
17
#190000
0!
06
07
#195000
1!
16
17
#200000
0!
06
07
#205000
1!
16
17
#210000
0!
06
07
#215000
1!
16
17
#220000
0!
06
07
#225000
1!
16
17
#230000
0!
06
07
#235000
1!
16
17
#240000
0!
06
07
#245000
1!
16
17
#250000
0!
06
07
#255000
1!
16
17
#260000
0!
06
07
#265000
1!
16
17
#270000
0!
06
07
#275000
1!
16
17
#280000
0!
06
07
#285000
1!
16
17
#290000
0!
06
07
#295000
1!
16
17
#300000
0!
06
07
#305000
1!
16
17
#310000
0!
06
07
#315000
1!
16
17
#320000
0!
06
07
#325000
1!
16
17
#330000
0!
06
07
#335000
1!
16
17
#340000
0!
06
07
#345000
1!
16
17
#350000
0!
06
07
#355000
1!
16
17
#360000
0!
06
07
#365000
1!
16
17
#370000
0!
06
07
#375000
1!
16
17
#380000
0!
06
07
#385000
1!
16
17
#390000
0!
06
07
#395000
1!
16
17
#400000
0!
06
07
#405000
1!
16
17
#410000
0!
06
07
#415000
1!
16
17
#420000
0!
06
07
#425000
1!
16
17
#430000
0!
06
07
#435000
1!
16
17
#440000
0!
06
07
#445000
1!
16
17
#450000
0!
06
07
#455000
1!
16
17
#460000
0!
06
07
#465000
1!
16
17
#470000
0!
06
07
#475000
1!
16
17
#480000
0!
06
07
#485000
1!
16
17
#490000
0!
06
07
#495000
1!
16
17
#500000
0!
06
07
#505000
1!
16
17
#510000
0!
06
07
#515000
1!
16
17
#520000
0!
06
07
#525000
1!
16
17
#530000
0!
06
07
#535000
1!
16
17
#540000
0!
06
07
#545000
1!
16
17
#550000
0!
06
07
#555000
1!
16
17
#560000
0!
06
07
#565000
1!
16
17
#570000
0!
06
07
#575000
1!
16
17
#580000
0!
06
07
#585000
1!
16
17
#590000
0!
06
07
#595000
1!
16
17
#600000
0!
06
07
#605000
1!
16
17
#610000
0!
06
07
#615000
1!
16
17
#620000
0!
06
07
#625000
1!
16
17
#630000
0!
06
07
#635000
1!
16
17
#640000
0!
06
07
#645000
1!
16
17
#650000
0!
06
07
#655000
1!
16
17
#660000
0!
06
07
#665000
1!
16
17
#670000
0!
06
07
#675000
1!
16
17
#680000
0!
06
07
#685000
1!
16
17
#690000
0!
06
07
#695000
1!
16
17
#700000
0!
06
07
#705000
1!
16
17
#710000
0!
06
07
#715000
1!
16
17
#720000
0!
06
07
#725000
1!
16
17
#730000
0!
06
07
#735000
1!
16
17
#740000
0!
06
07
#745000
1!
16
17
#750000
0!
06
07
#755000
1!
16
17
#760000
0!
06
07
#765000
1!
16
17
#770000
0!
06
07
#775000
1!
16
17
#780000
0!
06
07
#785000
1!
16
17
#790000
0!
06
07
#795000
1!
16
17
#800000
0!
06
07
#805000
1!
16
17
#810000
0!
06
07
#815000
1!
16
17
#820000
0!
06
07
#825000
1!
16
17
#830000
0!
06
07
#835000
1!
16
17
#840000
0!
06
07
#845000
1!
16
17
#850000
0!
06
07
#855000
1!
16
17
#860000
0!
06
07
#865000
1!
16
17
#870000
0!
06
07
#875000
1!
16
17
#880000
0!
06
07
#885000
1!
16
17
#890000
0!
06
07
#895000
1!
16
17
#900000
0!
06
07
#905000
1!
16
17
#910000
0!
06
07
#915000
1!
16
17
#920000
0!
06
07
#925000
1!
16
17
#930000
0!
06
07
#935000
1!
16
17
#940000
0!
06
07
#945000
1!
16
17
#950000
0!
06
07
#955000
1!
16
17
#960000
0!
06
07
#965000
1!
16
17
#970000
0!
06
07
#975000
1!
16
17
#980000
0!
06
07
#985000
1!
16
17
#990000
0!
06
07
#995000
1!
16
17
